//	过滤文字资源表		
//			
//			
//			
//			
//	过虑串	正则表达式	替代串
	asshole		
	fuck		
	shit		
	邓小平		
	渡口		
	法轮		
	法西斯		
	共产党		
	国民党		
	胡锦涛		
	江泽民
	李洪志
	毛泽东
	毛主席
	民进党
	纳粹
	小泉
	温家宝
	周恩来
	周总理
