//	各类默认
//	
//	
//	
//	
//	0NPC触发
//	1任务触发
//	2等级触发
//	3怪物死亡触发
//	4使用道具触发
//	5进入区块触发
//	6离开区块触发
//	7真实时间触发
//	8游戏时间触发
//	10上线触发
//	11创建玩家
//	12玩家死亡   	
//		
//		
//	ScriptType	FileName
	10	Script\Player\DoOnline.script
	11	Script\Player\DoCreate.script
	12	Script\Player\DoDead.script
